{
  "pagination": {
    "total": 125773,
    "limit": 10,
    "offset": 0,
    "total_pages": 12578,
    "current_page": 1
  },
  "data": [
    {
      "id": 133859,
      "title": "Lady Reading the Letters of Heloise and Abelard",
      "artwork_type_title": "Painting",
      "artist_title": "Auguste Bernard, called Bernard d'Agesci",
      "image_id": "8115bdb2-1a8c-bb25-a37b-5f804f3a84a9"
    },
    {
      "id": 270963,
      "title": "Control",
      "artwork_type_title": "Sculpture",
      "artist_title": "H. C. Westermann",
      "image_id": "ea1dcad3-5ddc-a090-a4cf-5ecabab7c5d7"
    },
    {
      "id": 210377,
      "title": "Ipse (Self-Portrait), from Life-Sized Heads",
      "artwork_type_title": "Print",
      "artist_title": "Thomas Frye",
      "image_id": "35c8a4a7-3b17-cd26-c5c2-24caff8e1c40"
    }
  ],
  "config": {
    "iiif_url": "https://www.artic.edu/iiif/2",
    "website_url": "http://www.artic.edu"
  }
}